Tidy Tuesday
…
## # A tibble: 6 × 2
##   paper program
##   <chr> <chr>  
## 1 w0074 EFG    
## 2 w0087 IFM    
## 3 w0087 ITI    
## 4 w0107 PE     
## 5 w0116 PE     
## 6 w0117 LS

paper_programs%>%
  count(program)

## # A tibble: 21 × 2
##    program     n
##    <chr>   <int>
##  1 AG       1646
##  2 AP       2722
##  3 CF       2361
##  4 CH       1689
##  5 DAE      1671
##  6 DEV      1277
##  7 ED       1601
##  8 EEE      1249
##  9 EFG      5803
## 10 HC       1708
## # … with 11 more rows
…
